…
Now that we have all the parts, we can calculate the ages\!

``` r
crs_ages <- pb210_crs(
  alta_lake_pb210$cumulative_dry_mass,
  alta_lake_pb210$excess_pb210,
  inventory = alta_lake_pb210$inventory
) %>%
  predict()

alta_lake_pb210 %>%
  bind_cols(crs_ages) %>%
  select(cumulative_dry_mass, age, age_sd)
#> # A tibble: 32 x 3
#>    cumulative_dry_mass    age age_sd
#>                  <dbl>  <dbl>  <dbl>
#>  1             0.00132   4.60   1.81
#>  2             0.00343   7.44  NA   
#>  3             0.00581  11.0    1.78
#>  4             0.00815  15.3    1.72
#>  5             0.0139   28.4    1.82
#>  6             0.0197   44.4    2.50
#>  7             0.0268   64.1    3.72
#>  8             0.0336   86.1    4.76
#>  9             0.0420  130.    10.9 
#> 10             0.0479   NA     NA   
#> # … with 22 more rows
```

## Core simulation

To test the package, I included a core simulator, which may be useful to
help me improve this package.

``` r
pb210_simulate_accumulation() %>%
  pb210_simulate_core() %>%
  pb210_simulate_counting()
#> # A tibble: 60 x 11
#>      age depth activity age_top age_bottom depth_top depth_bottom
#>    <dbl> <dbl>    <dbl>   <dbl>      <dbl>     <dbl>        <dbl>
#>  1  2.51  0.25     617.    0          5.01       0            0.5
#>  2  7.55  0.75     527.    5.01      10.1        0.5          1  
#>  3 12.6   1.25     450.   10.1       15.2        1            1.5
#>  4 17.7   1.75     384.   15.2       20.3        1.5          2  
#>  5 22.9   2.25     327.   20.3       25.5        2            2.5
#>  6 28.1   2.75     278.   25.5       30.7        2.5          3  
#>  7 33.3   3.25     236.   30.7       35.9        3            3.5
#>  8 38.6   3.75     200.   35.9       41.2        3.5          4  
#>  9 43.9   4.25     170.   41.2       46.6        4            4.5
#> 10 49.2   4.75     143.   46.6       51.9        4.5          5  
#> # … with 50 more rows, and 4 more variables: slice_mass <dbl>,
#> #   slice_density <dbl>, activity_estimate <dbl>, activity_se <dbl>
```
