Apply the Constant Rate of Supply or Constant Initial Concentration model — pb210_cic • pb210
…
# simulate a core
core <- pb210_simulate_core() %>%
  pb210_simulate_counting()

# calculate ages using the CIC model
cic <- pb210_cic(
  pb210_cumulative_mass(core$slice_mass),
  set_errors(
    core$activity_estimate,
    core$activity_se
  )
)

predict(cic)
#> # A tibble: 60 x 2
#>      age age_sd
#>    <dbl>  <dbl>
#>  1  2.44  0.197
#>  2  7.82  0.227
#>  3 12.1   0.257
#>  4 17.8   0.305
#>  5 23.1   0.355
#>  6 27.8   0.401
#>  7 33.1   0.456
#>  8 38.7   0.516
#>  9 43.8   0.573
#> 10 49.1   0.634
#> # … with 50 more rows

# calculate ages using the CRS model
crs <- pb210_crs(
  pb210_cumulative_mass(core$slice_mass),
  set_errors(
    core$activity_estimate,
    core$activity_se
  )
)

predict(crs)
#> # A tibble: 60 x 6
#>      age age_sd   mar  mar_sd inventory inventory_sd
#>    <dbl>  <dbl> <dbl>   <dbl>     <dbl>        <dbl>
#>  1  2.40  0.698 0.151 0.00373     2989.         65.1
#>  2  7.40  0.712 0.153 0.00384     2557.         56.5
#>  3 12.5   0.728 0.149 0.00380     2183.         48.9
#>  4 17.6   0.752 0.152 0.00395     1859.         42.4
#>  5 22.7   0.779 0.153 0.00408     1585.         36.9
#>  6 27.9   0.810 0.151 0.00411     1349.         32.1
#>  7 33.1   0.847 0.151 0.00424     1145.         27.9
#>  8 38.4   0.891 0.152 0.00443      972.         24.4
#>  9 43.7   0.937 0.151 0.00456      824.         21.4
#> 10 49.0   0.988 0.151 0.00474      697.         18.7
#> # … with 50 more rows
…
