Run a Monte-Carlo simulation on a CRS or CIC fit — pb210_cic_monte_carlo • pb210
…
# calculate ages using the CRS model
crs <- pb210_crs_monte_carlo(
  pb210_cumulative_mass(core$slice_mass),
  set_errors(
    core$activity_estimate,
    core$activity_se
  ),
  n = 100
)

predict(crs)
#> # A tibble: 60 x 12
#>      age age_min age_max age_values   mar mar_min mar_max mar_values inventory
#>    <dbl>   <dbl>   <dbl> <list>     <dbl>   <dbl>   <dbl> <list>         <dbl>
#>  1  2.37    2.33    2.41 <dbl [100… 0.153   0.150   0.156 <dbl [100…     2992.
#>  2  7.34    7.24    7.46 <dbl [100… 0.152   0.150   0.155 <dbl [100…     2562.
#>  3 12.4    12.2    12.6  <dbl [100… 0.152   0.149   0.154 <dbl [100…     2189.
#>  4 17.5    17.3    17.7  <dbl [100… 0.150   0.148   0.153 <dbl [100…     1867.
#>  5 22.6    22.4    23.0  <dbl [100… 0.151   0.148   0.154 <dbl [100…     1589.
#>  6 27.8    27.4    28.2  <dbl [100… 0.151   0.148   0.154 <dbl [100…     1353.
#>  7 33.0    32.6    33.6  <dbl [100… 0.152   0.149   0.155 <dbl [100…     1150.
#>  8 38.2    37.8    38.9  <dbl [100… 0.154   0.149   0.157 <dbl [100…      977.
#>  9 43.5    43.0    44.3  <dbl [100… 0.149   0.145   0.152 <dbl [100…      828.
#> 10 49.0    48.3    49.8  <dbl [100… 0.149   0.146   0.153 <dbl [100…      699.
#> # … with 50 more rows, and 3 more variables: inventory_min <dbl>,
#> #   inventory_max <dbl>, inventory_values <list>
…
